( (b=(a = 10)*(a-5)) - (150/b) -7 )^2 is 1600;
( (b=(a = 10)*(a-5) - (150/b) -7 )^2 is 1.#INF;ERROR # 5
( (b=(a = 10)*(a-5)) - (150/b) -7 )^2 is 1600;
( (b=(a = 10)*(a-5)) - (150/b) -7 )^2 is 1600;
( (b=(a = 10)*(a-5)) - (150/b) -7 )^2 is 1600;
( (b=(a = 10)*(a-5)) - (150/b) -7 )^2 is 1600;
( (b=(a = 10)*(a-5)) - (150/b) -7 )^2 is 1600;
a is 10;
( (b=(a = 10)*(a-5)) - (150/b) -7 )^2 is 1600;
( (b=(a = 10)*(a-5)) - (150/b) -7 )^2 is 1600;
( (b=(a = 7)*(a-5)) - (150/b) -7 )^2 is 13.7959;
( (b=(a = 10)*(a-5)) - (150/b) -7 )^2 is 1600;
( (b=(a = 10)*(a-5)) - (150/b) -7 )^2 is 1600;
( (b=(a = 10)*(a-5)) - (150/b) -7 )^2 is 1600;
( (b=(a = 10)*(a-5)) - (150/b) -7 )^2 is 1600;
( (b=(a = 10)*(a-5)) - (150/b) -7 )^2 is 1600;
